Daily Vegetable Prices of Sri Lanka • vegetablesSriLanka
…
Example

Fill missing gaps

filled <- fillgaps_vegetable_prices(
   data = vegetables.srilanka,
   item = "Carrot",
   market = "Dambulla",
   type = "Retail"
 )
filled
#> # A tsibble: 3,509 x 5 [1D]
#>    Date       Item   Type   Market   Price
#>    <date>     <chr>  <chr>  <chr>    <dbl>
#>  1 2016-08-01 Carrot Retail Dambulla   155
#>  2 2016-08-02 Carrot Retail Dambulla   155
#>  3 2016-08-03 Carrot Retail Dambulla   150
#>  4 2016-08-04 Carrot Retail Dambulla   145
#>  5 2016-08-05 Carrot Retail Dambulla   145
#>  6 2016-08-06 <NA>   <NA>   <NA>        NA
#>  7 2016-08-07 <NA>   <NA>   <NA>        NA
#>  8 2016-08-08 Carrot Retail Dambulla   125
#>  9 2016-08-09 Carrot Retail Dambulla   135
#> 10 2016-08-10 Carrot Retail Dambulla   150
#> # ℹ 3,499 more rows
…
